\relax 
\citation{Uhl.Seifert:2016}
\citation{Pearson:1901}
\citation{Hyvaerinen.Oja:2000a}
\bibstyle{plain}
\bibdata{MatlabExpo2018}
\bibcite{Hyvaerinen.Oja:2000a}{1}
\bibcite{Pearson:1901}{2}
\bibcite{Uhl.Seifert:2016}{3}
\pgfsyspdfmark {pgfid1}{1757794}{774753}
